DS 202 - cleaning data: messy 3
…
First: what are the key variables for the new dataset?

Second: for the key variable(s) use summarize to find the first time a movie shows up in the box office and find the related number of weeks. 

Key variables

Does Movie uniquely describe a movie?

movies <- box %>% select(Movie, Distributor) %>% unique()

Does that make a movie unique?

movies %>% count(Movie) %>% arrange(desc(n))

## # A tibble: 3,473 x 2
##    Movie                    n
##    <chr>                <int>
##  1 Beauty and the Beast     2
##  2 Blood Feast              2
##  3 Breathe                  2
##  4 Champion                 2
##  5 Concussion               2
##  6 Entertainment            2
##  7 Girlhood                 2
##  8 Gold                     2
##  9 Holy Hell                2
## 10 Leviathan                2
## # ... with 3,463 more rows
…
Looking into inconsistencies

movies %>% group_by(Movie) %>% mutate(n = n()) %>% arrange(desc(n))

## # A tibble: 3,496 x 6
## # Groups:   Movie [3,473]
##    Movie             Distributor        firstDate  firstWeek theater     n
##    <chr>             <chr>              <date>         <dbl>   <dbl> <int>
##  1 Beauty and the B… Lopert Pictures C… 2016-02-12         1       1     2
##  2 Beauty and the B… Walt Disney        2017-03-17         1    4210     2
##  3 Blood Feast       Crimson Forest En… 2018-04-06        42       1     2
##  4 Blood Feast       Hannover House     2018-04-20        44       3     2
##  5 Breathe           Bleecker Street    2017-10-13         1       4     2
##  6 Breathe           Film Movement      2015-09-11         1       1     2
##  7 Champion          ArtAffects         2017-05-26         2      16     2
##  8 Champion          Well Go USA        2018-05-11         1       2     2
##  9 Concussion        Radius             2013-10-04         1       2     2
## 10 Concussion        Sony Pictures      2015-12-25         1    2841     2
## # ... with 3,486 more rows
…
